Case Study: Financial Data
…
yen_usd <- read_delim(file = '1_Data/yen-dollar.txt', delim = '\t')

Parsed with column specification:
cols(
  `02 Jan 1990` = col_character(),
  `0.006838` = col_double()
)

Print the eur_usd and yen_usd objects. Are all the data types and variable names correct?

# Print exchange rates
eur_usd

# A tibble: 6,545 x 2
   `04 Jan 1999` `1.186669`
   <chr>              <dbl>
 1 05 Jan 1999         1.18
 2 06 Jan 1999         1.16
 3 07 Jan 1999         1.17
 4 08 Jan 1999         1.16
 5 11 Jan 1999         1.15
 6 12 Jan 1999         1.16
 7 13 Jan 1999         1.17
 8 14 Jan 1999         1.17
 9 15 Jan 1999         1.16
10 18 Jan 1999         1.16
# ... with 6,535 more rows

yen_usd

# A tibble: 8,764 x 2
   `02 Jan 1990` `0.006838`
   <chr>              <dbl>
 1 03 Jan 1990      0.00686
 2 04 Jan 1990      0.00698
 3 05 Jan 1990      0.00695
 4 08 Jan 1990      0.00694
 5 09 Jan 1990      0.00689
 6 10 Jan 1990      0.00688
 7 11 Jan 1990      0.00688
 8 12 Jan 1990      0.00688
 9 16 Jan 1990      0.00687
10 17 Jan 1990      0.00687
# ... with 8,754 more rows
…
