Objects & Functions
…
---

.pull-left45[

# Inspect content

```r
# inspect baselers via print
baselers
```

```
## # A tibble: 10,000 x 20
##       id sex      age height weight
##    <int> <chr>  <int>  <dbl>  <dbl>
##  1     1 male      44   174.  113. 
##  2     2 male      65   180.   75.2
##  3     3 female    31   168.   55.5
##  4     4 male      27   209    93.8
##  5     5 male      24   177.   NA  
##  6     6 male      63   187.   67.4
##  7     7 male      71   152.   83.3
##  8     8 female    41   156.   67.8
##  9     9 male      43   176.   69.3
## 10    10 female    31   166.   66.3
## # ... with 9,990 more rows, and 15 more
## #   variables
```
…
.pull-left45[

# Change/Add via <high>`$`</high>

```r
# compute age in months
baselers$age <- baselers$age * 2

# inspect baselers
baselers
```

```
## # A tibble: 10,000 x 20
##       id sex      age height weight
##    <int> <chr>  <dbl>  <dbl>  <dbl>
##  1     1 male      88   174.  113. 
##  2     2 male     130   180.   75.2
##  3     3 female    62   168.   55.5
##  4     4 male      54   209    93.8
##  5     5 male      48   177.   NA  
##  6     6 male     126   187.   67.4
##  7     7 male     142   152.   83.3
##  8     8 female    82   156.   67.8
##  9     9 male      86   176.   69.3
## 10    10 female    62   166.   66.3
## # ... with 9,990 more rows, and 15 more
## #   variables
```
…
